OSCAR III [-]           
1 01293U 65016F   07121.31060065  .00000166  00000-0  13732-3 0  9548
2 01293  70.0686  52.3363 0017606 134.2823 225.9733 14.04554201150574
AO-5 [-]                
1 04321U 70008B   07120.94206338 -.00000031  00000-0  10000-3 0  8369
2 04321 102.0923 107.0064 0027755  13.5233 346.6576 12.52149453703351
AO-6 [-]                
1 06236U 72082B   07121.53060580 -.00000027  00000-0  10000-3 0  8223
2 06236 101.4589 153.6316 0003816 335.8932  24.1962 12.53069957580007
AO-7 [P]                
1 07530U 74089B   07120.57684481 -.00000028  00000-0  10000-3 0  8631
2 07530 101.5185 159.9785 0012077 349.9993  10.0840 12.53572682485152
AO-8 [-]                
1 10703U 78026B   07121.18565643 -.00000090  00000-0 -32513-4 0  7833
2 10703  98.9433 179.2030 0006467 155.1687 204.9789 13.98787991487254
AO-10 [-]               
1 14129U 83058B   07120.45737887  .00000049  00000-0  10000-3 0  3777
2 14129  26.6378 279.4282 6058429  18.2445 356.3234  2.05869075151615
UO-11 [P]               
1 14781U 84021B   07120.78280717  .00000265  00000-0  42801-4 0  3611
2 14781  98.1919 142.5647 0008666 331.1440  28.9240 14.79545899242724
FO-12 [-]               
1 16909U 86061B   07120.94973401 -.00000083  00000-0  10000-3 0  2183
2 16909  50.0161  34.3643 0011389  28.3915 331.7538 12.44450439942071
UO-14 [-]               
1 20437U 90005B   07121.18182731  .00000003  00000-0  16595-4 0  3348
2 20437  98.2361 103.7005 0010912 326.5251  33.5245 14.31484200901740
UO-15 [-]               
1 20438U 90005C   07120.94457843  .00000020  00000-0  23612-4 0  8163
2 20438  98.2900  92.6875 0010263 348.3907  11.7035 14.30400168901217
AO-16 [P]               
1 20439U 90005D   07120.98845712  .00000032  00000-0  27088-4 0   238
2 20439  98.1943 118.1490 0010820 333.7995  26.2646 14.31757880901794
DO-17 [-]               
1 20440U 90005E   07120.94338729  .00000012  00000-0  19479-4 0  7118
2 20440  98.1845 124.1814 0010815 331.0536  29.0051 14.32057793901901
WO-18 [-]               
1 20441U 90005F   07121.58838850  .00000023  00000-0  23637-4 0  2231
2 20441  98.1874 123.2440 0011368 331.5113  28.5457 14.31826662901945
LO-19 [P]               
1 20442U 90005G   07121.03482832  .00000001  00000-0  15331-4 0  9502
2 20442  98.1803 127.6043 0011625 331.7439  28.3116 14.31998592901946
FO-20 [-]               
1 20480U 90013C   07121.23261155 -.00000036  00000-0 -15657-4 0  5178
2 20480  99.0435 177.5857 0540800 132.8784 231.9056 12.83354609807110
AO-21 [-]               
1 21087U 91006A   07120.93304717  .00000060  00000-0  47482-4 0  6361
2 21087  82.9392 262.4643 0033882 297.1497  62.6204 13.75020432815464
RS-12 & RS-13 [-]       
1 21089U 91007A   07120.49282824  .00000030  00000-0  16384-4 0  5216
2 21089  82.9185 124.5612 0029027 342.4731  17.5427 13.74472113814226
UO-22 [-]               
1 21575U 91050B   07120.96739101  .00000051  00000-0  30012-4 0  9773
2 21575  98.3433  74.4972 0007072 187.8592 172.2493 14.39595069828738
KO-23 [-]               
1 22077U 92052B   07120.94883252 -.00000037  00000-0  10000-3 0   948
2 22077  66.0838 156.5575 0015070 279.1595  80.7718 12.86441151691411
AO-24 [-]               
1 22654U 93031B   07121.09175864 -.00000110  00000-0  10000-3 0    28
2 22654   5.6238 350.8157 2920278 117.2301 275.0961  1.42205425 68053
AO-27 [+]               
1 22825U 93061C   07120.94202427  .00000076  00000-0  46250-4 0  6731
2 22825  98.3264  92.8924 0009333  45.6000 314.5956 14.29207047708745
IO-26 [-]               
1 22826U 93061D   07120.50749341  .00000037  00000-0  30640-4 0  3690
2 22826  98.3200  93.5679 0009864  43.4490 316.7472 14.29452735708764
KO-25 [-]               
1 22828U 93061F   07120.84705399 -.00000016  00000-0  99783-5 0  6026
2 22828  98.3136  93.9688 0010292  20.9522 339.2040 14.29759748677064
PO-28 [+]               
1 22829U 93061G   07120.97653773 -.00000080  00000-0 -14868-4 0  6470
2 22829  98.3077  95.1888 0010306  17.7596 342.3932 14.30151811709066
RS-15 [P]               
1 23439U 94085A   07120.97609723 -.00000039  00000-0  10597-3 0   528
2 23439  64.8155  83.2667 0160803 199.2445 160.2358 11.27552061508374
FO-29 [P]               
1 24278U 96046B   07121.53907567 -.00000009  00000-0  27210-4 0  4936
2 24278  98.5458  87.4580 0350330 204.0557 154.3872 13.52929403528590
MO-30 [-]               
1 24305U 96052B   07120.75887968  .00000003  00000-0 -12257-4 0  4893
2 24305  82.9385 209.7290 0028448 260.2361  99.5591 13.73544467533818
TO-31 [-]               
1 25396U 98043C   07120.68187740  .00000037  00000-0  34502-4 0  8010
2 25396  98.4301 173.9464 0002889  10.1741 349.9509 14.23730764457526
GO-32 [P]               
1 25397U 98043D   07121.05383313 -.00000061  00000-0 -86073-5 0  2897
2 25397  98.4176 170.3204 0001663  40.6499 319.4819 14.23123812457455
SO-33 [P]               
1 25509U 98061B   07120.45266271  .00000403  00000-0  69624-4 0  9165
2 25509  31.4317 135.6186 0354784  10.0245 350.7251 14.28165326444424
PO-34 [-]               
1 25520U 98064B   07120.93922476  .00000610  00000-0  20375-4 0  7270
2 25520  28.4598  64.9711 0005494 104.1167 256.0039 15.16980711470344
ARISS [+]               
1 25544U 98067A   07121.83464756  .00026104  00000-0  15712-3 0  1268
2 25544  51.6349 343.3649 0011056 133.1409 328.4127 15.77450487483455
SO-35 [-]               
1 25636U 99008C   07121.54320394  .00000035  00000-0  16887-4 0  6954
2 25636  96.4473 120.5654 0148158 163.2351 197.3824 14.43393413430925
UO-36 [-]               
1 25693U 99021A   07120.98383630 -.00000063  00000-0  11195-4 0  3238
2 25693  64.5608 346.5472 0045817 292.0205  67.5983 14.78657382432774
OO-38 [-]               
1 26063U 00004C   07120.50476912  .00000010  00000-0  23932-4 0  8987
2 26063 100.2267 114.3201 0036683 294.5744  65.1625 14.35803448380208
SO-41 [-]               
1 26545U 00057A   07121.13020106  .00000113  00000-0  33583-4 0  6558
2 26545  64.5596 354.6173 0027270 196.8189 163.2018 14.80405767356016
MO-46 [-]               
1 26548U 00057D   07121.72605575  .00000088  00000-0  28795-4 0  7837
2 26548  64.5579 326.3998 0020923 203.1058 156.9041 14.83129490356649
SO-42 [-]               
1 26549U 00057E   07120.83036666  .00000037  00000-0  24249-4 0  7359
2 26549  64.5596   7.8809 0032058 194.3094 165.7097 14.79268870355722
AO-40 [-]               
1 26609U 00072B   07119.76962188 -.00000045  00000-0  10000-3 0  8709
2 26609   5.1700 151.7550 7988339 309.2461   3.7576  1.25586686 29831
NO-44 [P]               
1 26931U 01043C   07121.07113288  .00000005  00000-0  34288-4 0  5754
2 26931  67.0505 268.8563 0007299 273.6384  86.3908 14.29481754291364
NO-45 [-]               
1 26932U 01043D   07121.48832864 -.00000044  00000-0  15290-4 0  5855
2 26932  67.0520 267.5448 0007009 288.9242  71.1096 14.29555797291461
BO-47 & BO-48 [-]       
1 27422U 02021B   07121.23819300  .00000022  00000-0  26099-4 0  4471
2 27422  98.5763 204.8618 0012392 350.4852   9.6089 14.28390404258349
AO-49 [-]               
1 27605U 02058A   07121.49455782 -.00000043  00000-0  14918-4 0  3270
2 27605  64.5582 217.6188 0047464  14.6434 345.5992 14.72280128234441
SO-50 [+]               
1 27607U 02058C   07120.88236316 -.00000070  00000-0  10839-4 0  3014
2 27607  64.5587 228.6546 0048742  13.8905 346.3544 14.71251770234163
DTUSAT [-]              
1 27842U 03031C   07121.00872490  .00000020  00000-0  29333-4 0    77
2 27842  98.7165 130.8696 0008680 205.7643 154.3111 14.20873587198833
CO-55 [+]               
1 27844U 03031E   07120.77078920  .00000075  00000-0  55226-4 0   179
2 27844  98.7199 129.7211 0009072 224.7368 135.3082 14.20507018198742
AAU CUBESAT [-]         
1 27846U 03031G   07120.58626391  .00000040  00000-0  38653-4 0  9571
2 27846  98.7154 130.4488 0009019 207.2225 152.8459 14.20874745198778
CANX-1 [-]              
1 27847U 03031H   07121.01008032  .00000001  00000-0  20874-4 0  9705
2 27847  98.7154 130.8666 0008909 204.5876 155.4874 14.20865678198786
CO-57 [+]               
1 27848U 03031J   07120.50353484  .00000031  00000-0  34725-4 0  9773
2 27848  98.7180 128.6690 0008982 231.2031 128.8348 14.20326321198685
RS-22 [+]               
1 27939U 03042A   07120.79526430  .00000175  00000-0  43016-4 0  1886
2 27939  98.0483   8.1243 0014731  66.6881 293.5889 14.63124294191745
AO-51 [+]               
1 28375U 04025K   07121.68418986  .00000010  00000-0  16184-4 0  8047
2 28375  98.1179 163.3902 0084350 324.2288  35.3271 14.40564257149019
VO-52 [P]               
1 28650U 05017B   07121.23028779  .00000483  00000-0  68220-4 0  6155
2 28650  97.8340 192.9934 0028134  48.3991 311.9678 14.81304121107461
UWE-1 [-]               
1 28892U 05043C   07121.18141555  .00000165  00000-0  44384-4 0  7359
2 28892  98.1354  18.7468 0016251 259.2664 100.6706 14.59494653 80350
XO-53 [-]               
1 28894U 05043E   07121.27672929  .00000067  00000-0  23768-4 0  8428
2 28894  98.1367  19.0360 0016512 261.4166  98.5173 14.59554295 80377
CO-58 [+]               
1 28895U 05043F   07120.54462538  .00000003  00000-0  10488-4 0  7155
2 28895  98.1402  18.3162 0016875 260.2997  99.6240 14.59542129 80146
NCUBE-2 [-]             
1 28897U 05043H   07121.65293405  .00000171  00000-0  45626-4 0  2406
2 28897  98.1365  19.3642 0016074 259.4790 100.4604 14.59704854 72581
CO-56 [P]               
1 28941U 06005C   07121.84179644  .00032302  24803-5  33495-3 0  4241
2 28941  98.1340 177.8188 0232971  77.3048 285.4026 15.38163028 66303
HO-59 [+]               
1 29484U 06041F   07121.10338945  .00068536  35169-5  49005-3 0  2915
2 29484  98.2912 163.8176 0221028  74.7180 287.8865 15.47717612 33780
RAFT (NO-60) [+]        
1 29661U 06055C   07121.89487465  .00269775  43850-4  38921-3 0  2205
2 29661  51.6351 330.2844 0009180 191.6590 168.4176 16.04751469 20996
NMARS [+]               
1 29662U 06055D   07121.79777032  .01128959  11891-4  49579-3 0  2487
2 29662  51.6222 327.9891 0007192 260.8948  99.1276 16.21659504 20904
ANDE (NO-61) [+]        
1 29664U 06055F   07121.54526570  .00041287  11715-4  15414-3 0  1326
2 29664  51.6329 337.7413 0014941 158.5069 201.6522 15.88675318 20738
FCAL [+]                
1 29667U 06055J   07120.92317096  .00028065  00000-0  11045-3 0  1248
2 29667  51.6323 341.8590 0015933 156.2051 203.9694 15.86468156 20491
PEHUENSAT 1 [+]         
1 29712U 07001D   07121.72043535  .00000765  00000-0  10883-3 0  3220
2 29712  97.9241 181.5194 0012827 280.8867  79.0917 14.79657229 16465
