SAUDISAT 1A             
1 26545U 00057A   07121.13020106  .00000113  00000-0  33583-4 0  6558
2 26545  64.5596 354.6173 0027270 196.8189 163.2018 14.80405767356016
UNISAT 1                
1 26547U 00057C   07120.98786993  .00000168  00000-0  39382-4 0  6750
2 26547  64.5586 346.8420 0033664 195.0385 164.9679 14.82072212356173
SAUDISAT 1B             
1 26549U 00057E   07120.83036666  .00000037  00000-0  24249-4 0  7359
2 26549  64.5596   7.8809 0032058 194.3094 165.7097 14.79268870355722
MOZHAYETS               
1 27560U 02054B   07121.46966897  .00000167  00000-0  48513-4 0  3563
2 27560  98.0248 348.6324 0044009 110.8428 249.7492 14.54896379233667
SAUDISAT 1C             
1 27607U 02058C   07120.88236316 -.00000070  00000-0  10839-4 0  3014
2 27607  64.5587 228.6546 0048742  13.8905 346.3544 14.71251770234163
UNISAT 2                
1 27608U 02058D   07121.70396082  .00000017  00000-0  23368-4 0  3194
2 27608  64.5588 202.7267 0038525 352.6453   7.4051 14.74258622234779
SAUDISAT 2              
1 28371U 04025F   07121.74551733  .00000018  00000-0  15019-4 0  2608
2 28371  98.1297 184.3459 0025319 293.4267  66.4271 14.52848843150487
UNISAT 3                
1 28373U 04025H   07120.79245032  .00000050  00000-0  26986-4 0  8030
2 28373  98.1165 167.0334 0070604 316.3230  43.2393 14.43197930149867
SSETI EXPRESS           
1 28894U 05043E   07121.27672929  .00000067  00000-0  23768-4 0  8428
2 28894  98.1367  19.0360 0016512 261.4166  98.5173 14.59554295 80377
