RADCAL                  
1 22698U 93041A   07121.71359990  .00000094  00000-0  34947-4 0  7473
2 22698  89.5095  69.7264 0089162 337.4659  22.2635 14.22768213718723
STRV 1A                 
1 23125U 94034B   07121.33469026  .00001155  00000-0  31624-3 0    34
2 23125   7.1308 144.2488 6873270 187.8512 149.7280  2.79880257117468
STRV 1B                 
1 23126U 94034C   07120.48082705  .00004295  00000-0  70976-3 0   362
2 23126   7.2797 104.9713 6830843 266.5402  19.8227  2.87648743119100
HELIOS 1A               
1 23605U 95033A   07121.71551733  .00000112  00000-0  30477-4 0  8728
2 23605  98.1422  57.8616 0001302  24.1475 335.9788 14.63827208631437
REX 2                   
1 23814U 96014A   07120.90925577  .00000051  00000-0  17572-4 0   771
2 23814  90.1435 258.5236 0022146 345.1912  14.8636 14.23812183578802
COSMOS 2346             
1 24953U 97052A   07121.53463328  .00000020  00000-0  45816-5 0  8227
2 24953  82.9243 177.7723 0040068 153.7153 206.6052 13.79429524483417
ARGOS                   
1 25634U 99008A   07121.02530081 -.00000196  00000-0 -71577-4 0  1177
2 25634  99.0711 130.8877 0010416   6.2682 353.8633 14.18866009423697
HELIOS 1B               
1 25977U 99064A   07121.74961493 -.00000204  00000-0 -20954-4 0   782
2 25977  98.2650  87.5104 0000501 334.0929  26.0243 14.77458418397121
MTI                     
1 26102U 00014A   07121.80188403  .00000313  00000-0  22145-4 0  3819
2 26102  97.1960 320.2099 0018714 289.3280 192.9337 15.11153221391978
STRV 1C                 
1 26610U 00072C   07119.48760986  .00000217  00000-0  10000-3 0  6463
2 26610   5.8712 179.4982 7348112 281.0732  11.1808  2.03454633 47942
OFEQ 5                  
1 27434U 02025A   07121.49870943  .00007880  00000-0  21641-3 0  9017
2 27434 143.4515 242.5524 0008199 241.7767 148.4741 15.33674122275434
HELIOS-2A               
1 28492U 04049A   07121.75066207  .00000100  00000-0  28100-4 0  6977
2 28492  98.0973  58.8545 0000933  48.6043 311.5235 14.63832596126408
ESSAIM-1                
1 28494U 04049C   07121.72628691  .00000049  00000-0  16470-4 0  7506
2 28494  98.1586  65.2888 0003131 160.2616 199.8705 14.70163085126859
ESSAIM-2                
1 28495U 04049D   07121.72582701  .00000088  00000-0  22885-4 0  7755
2 28495  98.1591  65.3372 0004116 159.9606 200.1750 14.70163317126857
ESSAIM-3                
1 28496U 04049E   07121.72647335  .00000116  00000-0  27668-4 0  7140
2 28496  98.1672  68.5753 0008852 182.8400 177.2758 14.70161879127038
ESSAIM-4                
1 28497U 04049F   07121.72601349  .00000144  00000-0  32347-4 0  7653
2 28497  98.1665  68.5965 0012008 180.8400 179.2781 14.70162012127030
MIDSTAR-1               
1 30773U 07006B   07120.60043611 -.00000229  00000-0  28920-5 0   445
2 30773  46.0318 184.4515 0003414 238.8660 121.1910 15.23164034  8009
CFESAT                  
1 30777U 07006F   07121.23289193  .00000540  00000-0  43322-4 0   409
2 30777  35.4318 137.5908 0003473  10.7453 349.3336 15.02161252  7980
