MOLNIYA 1-78            
1 20742U 90071A   07121.27790081  .00215669 -21374-4  32220-3 0  5277
2 20742  61.3489 106.8394 7480786 273.1203  11.2805  2.09669914122612
MOLNIYA 3-39            
1 20813U 90084A   07120.22136305  .00000230  00000-0  10000-3 0  7949
2 20813  62.3734 182.7622 7228428 261.1480  18.4300  2.01048611121670
MOLNIYA 1-80            
1 21118U 91012A   07119.73248785 -.00000846  00000-0  10000-3 0  3018
2 21118  63.7814  23.4096 7253759 247.7150  24.9357  2.00232710118706
MOLNIYA 3-40            
1 21196U 91022A   07119.67675750 -.00001108  00000-0  10000-3 0  5658
2 21196  63.5187   7.9330 7304708 247.9302  24.1658  2.00262362118008
MOLNIYA 1-81            
1 21426U 91043A   07119.71161723 -.00000349  00000-0 -11936-3 0  7458
2 21426  62.9782   3.8172 7435144 257.1462  18.0332  2.00639723116262
MOLNIYA 3-41            
1 21706U 91065A   07120.21394771  .00000473  00000-0  10000-3 0   204
2 21706  62.0296 179.0597 7212585 268.0710  15.9229  2.00534926114426
MOLNIYA 1-83            
1 21897U 92011A   07120.77235307  .00124156 -96383-6  42389-3 0  5398
2 21897  62.1069 147.1199 7512032 256.7287  17.5765  2.05092847111126
MOLNIYA 1-84            
1 22068U 92050A   07120.36587618  .00000899  00000-0  17762-3 0    92
2 22068  61.4885 183.7108 7404979 260.0302  17.2246  2.07099684108436
MOLNIYA 3-42            
1 22178U 92067A   07121.56239174 -.00000227  00000-0 -12660-3 0  3616
2 22178  62.6851 311.7627 7441083 256.0246  18.4479  2.00608432106576
MOLNIYA 3-43            
1 22255U 92085A   07120.14299779  .00001233  00000-0  10000-3 0  7595
2 22255  63.5167  90.7213 7362596 254.6419  20.0314  2.00790458105604
MOLNIYA 1-86            
1 22671U 93035A   07120.50219976  .00000531  00000-0 -41875-3 0  8488
2 22671  62.2195 261.0821 7392240 261.1387  16.8766  2.03247239102199
MOLNIYA 3-45            
1 22729U 93049A   07119.84215497  .00000104  00000-0  10000-3 0  4281
2 22729  64.2465  41.2355 7271010 250.9926  22.8595  2.01045251100611
MOLNIYA 1-87            
1 22949U 93079A   07120.13180230  .00000091  00000-0  10000-3 0  9840
2 22949  64.2917 149.9530 6742090 253.3886  27.4457  2.00994910 97897
MOLNIYA 3-46            
1 23211U 94051A   07121.35077285  .00000390  00000-0  17493-2 0  1952
2 23211  62.3630 229.9626 7396948 252.4055  20.7671  2.01232610 92995
MOLNIYA 1-88            
1 23420U 94081A   07120.68934931 -.00000725  00000-0  13457-3 0  4944
2 23420  63.4291   6.7485 7507534 253.4137  18.9675  2.00629306 90692
MOLNIYA 3-47            
1 23642U 95042A   07120.08825750 -.00000008  00000-0  10000-3 0   367
2 23642  63.8827 140.0999 6893404 256.8867  23.7668  2.00609386 85910
MOLNIYA 1-89            
1 24273U 96045A   07120.41868266  .00000147  00000-0  29000-3 0  2251
2 24273  63.9008  91.9730 7305808 254.9634 349.3274  2.00590898 78445
MOLNIYA 3-48            
1 24640U 96060A   07120.62590061  .00006099  12107-5  28622-3 0   440
2 24640  63.9160  14.3886 7532422 241.5628  25.4585  2.01089229 77035
MOLNIYA 1-90            
1 24960U 97054A   07121.20550833  .00000259  00000-0  10000-3 0  7957
2 24960  63.9585 178.8211 6856283 261.3341  21.2189  2.00580686 70381
MOLNIYA 3-49            
1 25379U 98040A   07120.15441278  .00000318  00000-0  10000-3 0  5294
2 25379  64.1118 157.8747 6998271 261.1651  20.5923  2.00659177 64695
MOLNIYA 1-91            
1 25485U 98054A   07121.48404111  .00000233  00000-0  10000-3 0  8771
2 25485  63.9880 263.2178 6998860 268.8090  42.4741  2.00613973 62919
MOLNIYA 3-50            
1 25847U 99036A   07120.75024705  .00000028  00000-0  10000-3 0  1876
2 25847  64.0900  12.6095 7189385 270.6592  15.1772  2.00652182 57238
MOLNIYA 3-51            
1 26867U 01030A   07121.00407897 -.00000461  00000-0 -55999-2 0  1331
2 26867  64.1773 302.2686 7343303 275.1058 346.6799  2.00602460 42344
MOLNIYA 1-92            
1 27707U 03011A   07120.94649222 -.00000619  00000-0  10000-3 0  5544
2 27707  64.8903 302.7141 7332177 277.9966 314.4929  2.00648760 29881
MOLNIYA 3-53            
1 27834U 03029A   07121.01032866 -.00000187  00000-0  10000-3 0  4159
2 27834  64.8892 302.5910 7336469 278.6211 346.2324  2.00625267 28316
MOLNIYA 1-93            
1 28163U 04005A   07120.82308627 -.00000237  00000-0  10000-3 0  1590
2 28163  64.0758  38.4515 7355155 285.6768  23.8325  2.00659493 23412
