SIRIUS-1                
1 26390U 00035A   07120.30053038 -.00000076  00000-0  10000-3 0  1125
2 26390  62.2974 261.5385 2662697 269.2445  60.3675  1.00282120 25035
SIRIUS-2                
1 26483U 00051A   07119.97420616  .00000165  00000-0  10000-3 0  8896
2 26483  63.6116 141.5966 2664692 270.6792  59.2649  1.00275501 24369
SIRIUS-3                
1 26626U 00077A   07121.63417172 -.00000174  00000-0  10000-3 0   143
2 26626  63.8601  21.6232 2647095 269.8720  60.2194  1.00280613 23515
XM-2 (ROCK)             
1 26724U 01012A   07120.52854138 -.00000015  00000-0  00000+0 0  1977
2 26724   0.0754 269.1563 0000232 106.4715 277.6278  1.00273037 22480
XM-1 (ROLL)             
1 26761U 01018A   07120.52854175 -.00000014  00000-0  00000-0 0  9580
2 26761   0.0709 269.3843 0000228   6.4989  17.4075  1.00272052 21964
XM-3 (RHYTHM)           
1 28626U 05008A   07119.54029674 -.00000200  00000-0  10000-3 0  3173
2 28626   0.0154 201.8629 0000182  59.9410  64.6965  1.00270989  7989
XM-4 (BLUES)            
1 29520U 06049A   07119.29780653 -.00000020  00000-0  00000+0 0   875
2 29520   0.0099 219.5840 0000551  43.1454 306.3856  1.00272786  1925
